%YAML 1.1
%TAG !u! tag:unity3d.com,2011:
--- !u!114 &8910553926455616219
MonoBehaviour:
  m_ObjectHideFlags: 0
  m_CorrespondingSourceObject: {fileID: 0}
  m_PrefabInstance: {fileID: 0}
  m_PrefabAsset: {fileID: 0}
  m_GameObject: {fileID: 4392014812787012167}
  m_Enabled: 1
  m_EditorHideFlags: 0
  m_Script: {fileID: 11500000, guid: 62af5e3e95cf00a4cad0653ab77a19a5, type: 3}
  m_Name: 
  m_EditorClassIdentifier: 
  _damage: 20
--- !u!1001 &5789664292888776885
PrefabInstance:
  m_ObjectHideFlags: 0
  serializedVersion: 2
  m_Modification:
    m_TransformParent: {fileID: 0}
    m_Modifications:
    - target: {fileID: 2218650269468164270, guid: be5808e0a6152b647aa348d67efb15dc,
        type: 3}
      propertyPath: m_Sprite
      value: 
      objectReference: {fileID: 8821817564456949271, guid: 6fa77df90ae25fd4aac32b72c87386f3,
        type: 3}
    - target: {fileID: 2218650269468164270, guid: be5808e0a6152b647aa348d67efb15dc,
        type: 3}
      propertyPath: m_Size.x
      value: 0.72
      objectReference: {fileID: 0}
    - target: {fileID: 2218650269468164270, guid: be5808e0a6152b647aa348d67efb15dc,
        type: 3}
      propertyPath: m_Size.y
      value: 0.77
      objectReference: {fileID: 0}
    - target: {fileID: 2218650269468164270, guid: be5808e0a6152b647aa348d67efb15dc,
        type: 3}
      propertyPath: m_WasSpriteAssigned
      value: 1
      objectReference: {fileID: 0}
    - target: {fileID: 2665277518341326749, guid: be5808e0a6152b647aa348d67efb15dc,
        type: 3}
      propertyPath: m_Sprite
      value: 
      objectReference: {fileID: -3971109672985415555, guid: e567c33046c800a48afb26de3e443ef9,
        type: 3}
    - target: {fileID: 2665277518341326749, guid: be5808e0a6152b647aa348d67efb15dc,
        type: 3}
      propertyPath: m_Size.x
      value: 0.2
      objectReference: {fileID: 0}
    - target: {fileID: 2665277518341326749, guid: be5808e0a6152b647aa348d67efb15dc,
        type: 3}
      propertyPath: m_Size.y
      value: 0.2
      objectReference: {fileID: 0}
    - target: {fileID: 2665277518341326749, guid: be5808e0a6152b647aa348d67efb15dc,
        type: 3}
      propertyPath: m_WasSpriteAssigned
      value: 1
      objectReference: {fileID: 0}
    - target: {fileID: 2665277518341326749, guid: be5808e0a6152b647aa348d67efb15dc,
        type: 3}
      propertyPath: m_Color.r
      value: 1
      objectReference: {fileID: 0}
    - target: {fileID: 2665277518341326749, guid: be5808e0a6152b647aa348d67efb15dc,
        type: 3}
      propertyPath: m_Color.g
      value: 1
      objectReference: {fileID: 0}
    - target: {fileID: 2665277518341326749, guid: be5808e0a6152b647aa348d67efb15dc,
        type: 3}
      propertyPath: m_Color.b
      value: 1
      objectReference: {fileID: 0}
    - target: {fileID: 3444406630504641995, guid: be5808e0a6152b647aa348d67efb15dc,
        type: 3}
      propertyPath: m_LocalScale.x
      value: 1.5
      objectReference: {fileID: 0}
    - target: {fileID: 3444406630504641995, guid: be5808e0a6152b647aa348d67efb15dc,
        type: 3}
      propertyPath: m_LocalScale.y
      value: 1.5
      objectReference: {fileID: 0}
    - target: {fileID: 3444406630504641995, guid: be5808e0a6152b647aa348d67efb15dc,
        type: 3}
      propertyPath: m_LocalScale.z
      value: 1.5
      objectReference: {fileID: 0}
    - target: {fileID: 4717803038993638720, guid: be5808e0a6152b647aa348d67efb15dc,
        type: 3}
      propertyPath: m_LocalPosition.x
      value: 0
      objectReference: {fileID: 0}
    - target: {fileID: 4717803038993638720, guid: be5808e0a6152b647aa348d67efb15dc,
        type: 3}
      propertyPath: m_LocalPosition.y
      value: 0
      objectReference: {fileID: 0}
    - target: {fileID: 4717803038993638720, guid: be5808e0a6152b647aa348d67efb15dc,
        type: 3}
      propertyPath: m_LocalPosition.z
      value: 0
      objectReference: {fileID: 0}
    - target: {fileID: 4717803038993638720, guid: be5808e0a6152b647aa348d67efb15dc,
        type: 3}
      propertyPath: m_LocalRotation.x
      value: 0
      objectReference: {fileID: 0}
    - target: {fileID: 4717803038993638720, guid: be5808e0a6152b647aa348d67efb15dc,
        type: 3}
      propertyPath: m_LocalRotation.y
      value: 0
      objectReference: {fileID: 0}
    - target: {fileID: 4717803038993638720, guid: be5808e0a6152b647aa348d67efb15dc,
        type: 3}
      propertyPath: m_LocalRotation.z
      value: 0
      objectReference: {fileID: 0}
    - target: {fileID: 4717803038993638720, guid: be5808e0a6152b647aa348d67efb15dc,
        type: 3}
      propertyPath: m_LocalRotation.w
      value: 1
      objectReference: {fileID: 0}
    - target: {fileID: 4717803038993638720, guid: be5808e0a6152b647aa348d67efb15dc,
        type: 3}
      propertyPath: m_RootOrder
      value: 0
      objectReference: {fileID: 0}
    - target: {fileID: 4717803038993638720, guid: be5808e0a6152b647aa348d67efb15dc,
        type: 3}
      propertyPath: m_LocalEulerAnglesHint.x
      value: 0
      objectReference: {fileID: 0}
    - target: {fileID: 4717803038993638720, guid: be5808e0a6152b647aa348d67efb15dc,
        type: 3}
      propertyPath: m_LocalEulerAnglesHint.y
      value: 0
      objectReference: {fileID: 0}
    - target: {fileID: 4717803038993638720, guid: be5808e0a6152b647aa348d67efb15dc,
        type: 3}
      propertyPath: m_LocalEulerAnglesHint.z
      value: 0
      objectReference: {fileID: 0}
    - target: {fileID: 7830236705424302834, guid: be5808e0a6152b647aa348d67efb15dc,
        type: 3}
      propertyPath: m_Name
      value: FirstEnemy
      objectReference: {fileID: 0}
    m_RemovedComponents: []
  m_SourcePrefab: {fileID: 100100000, guid: be5808e0a6152b647aa348d67efb15dc, type: 3}
--- !u!1 &4392014812787012167 stripped
GameObject:
  m_CorrespondingSourceObject: {fileID: 7830236705424302834, guid: be5808e0a6152b647aa348d67efb15dc,
    type: 3}
  m_PrefabInstance: {fileID: 5789664292888776885}
  m_PrefabAsset: {fileID: 0}
